<?xml version="1.0" encoding="UTF-8" standalone="no"?>
<!-- Created with Inkscape (http://www.inkscape.org/) -->

<svg
   xmlns:dc="http://purl.org/dc/elements/1.1/"
   xmlns:cc="http://creativecommons.org/ns#"
   xmlns:rdf="http://www.w3.org/1999/02/22-rdf-syntax-ns#"
   xmlns:svg="http://www.w3.org/2000/svg"
   xmlns="http://www.w3.org/2000/svg"
   xmlns:xlink="http://www.w3.org/1999/xlink"
   xmlns:sodipodi="http://sodipodi.sourceforge.net/DTD/sodipodi-0.dtd"
   xmlns:inkscape="http://www.inkscape.org/namespaces/inkscape"
   id="svg2"
   version="1.1"
   inkscape:version="0.92.3 (2405546, 2018-03-11)"
   width="244"
   height="226"
   xml:space="preserve"
   sodipodi:docname="ming_logo.svg"
   style="enable-background:new"><metadata
     id="metadata8"><rdf:RDF><cc:Work
         rdf:about=""><dc:format>image/svg+xml</dc:format><dc:type
           rdf:resource="http://purl.org/dc/dcmitype/StillImage" /><dc:title></dc:title></cc:Work></rdf:RDF></metadata><defs
     id="defs6"><clipPath
       id="hexagon"
       clipPathUnits="userSpaceOnUse"><path
         sodipodi:type="star"
         id="path3801"
         sodipodi:sides="6"
         sodipodi:cx="82.15"
         sodipodi:cy="133.857"
         sodipodi:r1="90.066642"
         sodipodi:r2="78"
         sodipodi:arg1="-0.52359878"
         sodipodi:arg2="0"
         inkscape:flatsided="true"
         inkscape:rounded="0"
         inkscape:randomized="0"
         d="m 160.15,90.066642 0,90.066642 -78,45.033321 -78,-45.033321 0,-90.066642 78,-45.033321 z" /></clipPath></defs><sodipodi:namedview
     pagecolor="#ffffff"
     bordercolor="#666666"
     borderopacity="1"
     objecttolerance="10"
     gridtolerance="10"
     guidetolerance="10"
     inkscape:pageopacity="0"
     inkscape:pageshadow="2"
     inkscape:window-width="1539"
     inkscape:window-height="904"
     id="namedview4"
     showgrid="false"
     showguides="true"
     inkscape:guide-bbox="true"
     inkscape:zoom="2.8284272"
     inkscape:cx="154.06406"
     inkscape:cy="126.42967"
     inkscape:window-x="2114"
     inkscape:window-y="30"
     inkscape:window-maximized="0"
     inkscape:current-layer="svg2"
     inkscape:object-paths="true"
     inkscape:snap-to-guides="true"
     inkscape:snap-smooth-nodes="true"
     inkscape:snap-object-midpoints="false"
     fit-margin-top="2"
     fit-margin-left="1"
     fit-margin-bottom="2"
     fit-margin-right="1"
     inkscape:snap-page="false"
     inkscape:object-nodes="true"
     inkscape:snap-global="false"><sodipodi:guide
       orientation="0,1"
       position="0,54.062"
       id="guide3023"
       inkscape:locked="false" /><sodipodi:guide
       orientation="1,0"
       position="82.15,0"
       id="guide3025"
       inkscape:locked="false" /><sodipodi:guide
       orientation="1,0"
       position="144.15,0"
       id="guide3042"
       inkscape:locked="false" /><sodipodi:guide
       orientation="1,0"
       position="4.15,0"
       id="guide3044"
       inkscape:locked="false" /><sodipodi:guide
       orientation="1,0"
       position="160.15,0"
       id="guide3046"
       inkscape:locked="false" /><sodipodi:guide
       orientation="0,1"
       position="0,92.143"
       id="guide3048"
       inkscape:locked="false" /><sodipodi:guide
       orientation="0,1"
       position="0,137.176320997"
       id="guide3050"
       inkscape:locked="false" /><sodipodi:guide
       orientation="0,1"
       position="0,50.812"
       id="guide3923"
       inkscape:locked="false" /></sodipodi:namedview><image
     width="262.58829"
     height="262.58829"
     preserveAspectRatio="none"
     xlink:href="data:image/png;base64,iVBORw0KGgoAAAANSUhEUgAAAJEAAACRCAYAAADD2FojAAAABHNCSVQICAgIfAhkiAAAIABJREFU eJzsnXeYXGd97z/v6edM26bVSivLki3LNpYly5ZcAJvi0EKLIc10gosciCH15nJJ8oDBBJLcG0Kx QDbdF27oYAgGXMDGRbIlW+7qbSVtnT6nn/f+cWZmZ6VdSVax4sTf55lndmbPnPZ+z6+/v1dIKXkB L+BYoJzsE3gBz3+8QKIXcMx4gUQv4JjxAolewDHjBRK9gGPGCyR6AccM7WSfwAuYGfLxB6fEX8SS i8ShthX3fRlWb4ALzgexDFY8Ag+dB3+qIrVlh/z9sUC8ECf6z4PkW+ukcuctyJsfAEDw6MEbLV+Z vl8gSV75BZQrV6bEWL1act11hz7A8pVwgYQL3gerVh0/Qkkp/1u99u3fIdevf0buGlona40n5Mk+ Hykl8qabpLxqhZTw7F/LV6bXsOGLz+53V62Q8qabjsv1n/wb+By9bvjEn8mB3mXSslZIR79MDg68 VN7wiY+1ieR7PzkphEoee+CQg52wLCXKIQlxbXru0223fGW6j8OR8BheJ31wn4vXp//lWmnbC2XG /n2pi3dIzD+SlvY6aWmvk3/+wY/K/XtLcuee204KiQ4a+KWd5Fghp93uqmunbgcyeeyBdNurvzDl f+3vpUyl1VXXHkyqpVcd07X/t/DOPvYP/w8ZnkU9LGBgQ5zFlqcionP5P6u38uRTLqXxGlu2f1Xu 2/O9k2ckLl9J8rdrJz8/PL3ZIj/4XuStD0zaR4C4d0P6x5euE3DV9Ps/7xrBmtVCyEdE52/ZePMx nfZ/eRJ9/MbrZRzNwlZ7cCIr/VINKbYuPezjP36+jZ27IibGa4xXKuzZ++3nnkjLV8L6tUKcmxzR 5mLJRYILzp/84ktfnvxbncYgPxDr1wqWdnxevfqor/m/PIkmRvoQ8RwaYQBAXeQAMBjCVWs4ic/O 7VuZGB9neL/L7m01iqXyc3eC8bqp7zNh1fKDvpIffO+RH+fqVZLzL5RTyKJ2SKP1R//c/Jcn0R13 P4KnBFhKBoDuPgXD1wkYBK1Gw6wyOjHB2HiVYrFMJDXcRsiuvd8/4dJIPv6gZGPzQ+eAthAvm/z7 ofMOva8NweSH6Qh38wOwYR3cdN30251/9B7/SSNR4N/2nKiMLZs2oUWz8ZI6AEsWn8dLXnEhdpzF DF0AhCwBWRp1geuN4dYT3MaRqZUTik61tOKR9L3TDuoIHorlxiF3JZY297WxI4iZdJDo+SiJDPMN 7Rvwk9tulW98wxXStlfKOYNvkn/xoY/J/cM7ZbVxxzERrdq4Q6rCQBEBiTTRtToXX7IQhItr7sRX 8pihy4b7NiMjHd8PaNTS0wqCcUYmfnByI7EzSKIpkeemXTNFEh0pOonTIulR4KRLoo/feL1825Uf 4M5fTCCDhUwMK9z0+QdYcs7V7N9zKSPjd8gDpVbdu/2IBveeX68jlgGqniFU8pS1ERYvzjCnXwdR RY99fDGLRhhQdwV1TyXGwPMkkczQ33PFCUkTTIsmYcSSiyYN3gs7BvYw6maKJEoOVmfTqstO4kz3 myPEc0qiTjIY5hvEM1u+K//5n1ZD9CISmSGRJlo8D0+dRa3YxVt+728Y3qexc09lilTIWK85osF9 eMNmFFkg8gV6UsEMMixalOe0RVXsyEcRPgifRJooooChd6PqLoks47ruibgFM6NTdbUGfG2HHaSk LvxBEqe1badhPp1q6pRqLTwf1VmnCgP4wuduJahdRhgMEse9SKOPUJQpxAo+p/DM0+OMjliMj3cz urfOs43hrF37IACxPoiQJlIEbNv2EJXaGBIDKdIBCc0MS5YuxfMqVMcEiiiQcxL2jt763KmzTiO3 RYhOYjXVWdu2aaJFKrmxgyTTqaZp3H750o5jPp/UWacqevqZnfhqHUc30GWBKFQIRT9hlKGgTBAa Cvf8Zoinn1HYtr3K0L7isyLS7h0TRFG6X10oLD/3dBQ9z9Klp6Mb+5FJDjOpYHgR42MxhexCIlUQ Jy5uIyQK7RNzE6ZDh80zhRAH4gC11FJjgkcnDebpPLlr/uTQx1/3PPLOOlXR8L79mGKcelQjFGUu Pv9CMrJKrIwQRqlLvvbBbUT+ANV6hnqjwUTJPaJgYN27Xe7YOdb+LKXBnAWzIBph0aJFAAilikzy BJbGzh27KFYESagQkwWZwzTN4379M6LD5hFX6TP+/yB1dsE0t2I6++mw6urhw/x/ZpzUONGevSMQ zYe4DyFN7FyZhWc5CKVGhIftD/DAQ09TGk8oThSpNxrU3Rg1meYmH4AWWT01D8JDiIAXvSh9iivl YQAUEWBrMQQZEukA0Ns9n3qtTqPhMjxUO1GXfjA6B3madMcU1dOJ6VIjR2PfrD10HOpQOKkkCgML V6QXHKgmK1Ys4ZJLXgWAFD6R2Et9okK5ugfPg0pNMD5cYawydqjdAvCvn/mIjII5dKNhx1mkNDhj wWIAdmzZSj02EQSUVRcjKROGNjmnn7o7gYxSktqZ+ARd+dHjoHjQdJJoOvvmcMHEI0mVzICTSqIk 1lGUBhoWSAtdd5k9J0HT0rRDaGZwRC9Ll63AssCrhSh6gsA4bAxnaKiEF3fhxhO4SkRDlWS6NMaL E2imIKP6Uwj8wL1PIUUBAN9r4Hs+gfscBhw7B3lFM50xnUe1Yd3UisfpJNF07vo00kksuUh0Frkd LU4qiWSSJ+HU9IPwOGPBYpYuW0FEgCJ8HE+jKB0eeeRJytVhTMshTly8eoyRHDpC++QT45hJF56a x040nFgQRwaGlsOwTGKZ2hbdaBix3/6dW9MRSp4kVDBshZGJHxwUpzohmC7wd7TSYTp1djjv6/mo zm666QYpZQ47HqOhmDixINOlUa3ei6ZtwTfqBGaqVu6/fytJXMOPq9RqIbVGxFh19JD7f/ihjWSy AyBdXCXioleewZ5du3ByYwSezytfeQaK0qAoqwSqSRhmSYIMQgtRIg8At66ScZyDQhMnBJ2DfJg8 2RR0ZvKn21cLMwQT24b681GdPb2pgiILuOogdqLRUCVxZFCvVbnsstdiRZIoCnASn7V3P0QmNwtC 9Yj3X6vVqFar6GEe9DEWLVhEV6+Cyhy8CKJgEDPOgEjd+PUP/ZKuXgVDS7P8ip6gaI0jDmweM5Kj TIaKwwQRm5jJMG/bWM9HdabKHEmsAT6uWgPh49Ua+NE4l7xkFqE6hBH7NFRJXU3Q5CBjRRPP8/E9 H78+80SVZ7Z8V2azWTxFRxp9EOuctaRAtbKHcuVxAGbPiQjUUZBpZFrDolKt4uQCYtNtq81D4biq uU4V1IxOTytlDsQ0UmdGT+5QmKEA7khw0ki0deuu5l8mSAsjSj/ZlkF31+nowkC3y6m9ommE8WJM rZdGffJipyvXqHu3yx//+FdUKiEIGxGM0a16LDpdp9DVoKtrkO7sAk6ZvxA9HgTRBdJqq85isYqp 5ohjFdWxDpmnO2FqriVJHl7f/qrTCG5XMcKzU32tfd3XUcB2uDqmI8AJJ9ERPa3CY3Bh6hm5XkA2 IxBinDisE5ghBBmefryMpAvdHCRIVOpeCeTBwcCM9RqxZ9cwmpJFD3RC1SSJdcK4iBTjTFTK1N0J PH83gVqkECvYiYbuG5y/NH3y/biKoRuEjZh6o3F8b8hMeHD9wd/NNMBKB4mOpg6ok3jT5d6eJU44 iWZ6Wn95x51IqWP4OppmsGDhfCIxAclsosSgpzCIIIBYx0l8nn5qP3FkUhxN0OKUlzMlSe+7fyu1 IENohDiRhdqlUirtoFrZgxZLurIlzj7rZRgioix2IagjqDM6UWZWb0rMIAyw7S4Czz9o/8dLjU0p 6eg0bB9ueWcHZN5bA726g0RHE1jsJF4rjDBdlv8IcdIkkaEHSK1MYGlEocJZZ8ymWtmD2dRry86f h8RAj30aisnD928gDudiZ0Oqbonh4Qz/+i87mTP4JvnlL39HDu8ry1bsaPOmp7GFAlFvuq9zLwQq mIaJnXWxtC5WXmigaVtAZGmokoYqeeSRJxkbr6In4LoevjuKYR0s7Y6rGls+zeBdML2KmjandjSJ 007iHYNX1sJJk0QAfmRBqGInGtn8fHL5eURiCMdqcP755yEIUNVxjKRMw9pO/4BHEuV45qnTef+1 13Lr12+luN/iz973a37n8n8gCc9nZHyykK0n2YGu1VmxYgmQR4gATc20jx/H3SDs1O5SUs/PsRPc wMO2LRLhTSuJjiumUyMtSTSTiun8/ihsomPJ2E+Hk2JY7xr6qQwCB132omkGrjaOrru4jYfR5CBh NMHZ58xBMTaTRHNRtR04cY3uvqe5+cu38dl//j+Mj1xCGAwgkzwNs8qmTTtYOO86/vGG37LuwRpo 43jOOnyGWXKOIPBGkVoJXY1x8goo+zHMPVhxhUADYp0wtDEsE9f3COoJbj058UX706mRlkE9k4rZ yOTsjKMhRCfxWh7gf2abaDo89fgWAmkjpIEIxkAN+Z3LzyGTTWM0Muknk3GQwiXUnuGnt3+Tb//g PVSrKju3r8WLY6KkGy85GylSSRFoqWFe6FrCnj0T/Oz2f+WOO79Gzh5l3ikKhjUL2+ojaZZ3+PVU 8njCBzXESXwe3fAA1UoF27TwfA+JgeDQkfFjxUFZ+atXSTZMP6CdeTN53eo0/XE0FYmdNtHD0xj0 zxInpSvIxsc3YAgXV/NB2Jihi1BcajUVXR8iSkwUpcrP/uP/0tNdB55BTIwCs4giFZHYBJqF4ZcJ 1Dx6UEFIk4S5XHbZi9m1+9/p6plLPgu3/N8/pN74DbmsR8OHvkEPx7awbQuSfoQMMEKXhmUTxVVy +XmE/hAY4Hs+YDIy8QN5okplxXIDNpDOxDj/wqkEOjAAeIFMt6XZ7OHci5kyd+xI0endxcuAdciN yzjaCzxpcSJNyWLEAsPX8Y06e/ffg1DvoeHmAXjs8c1UysNYdh2hbENV51OrFDl1gYUraxh+tr0v XRbQsNDtMvfeeydRYjA2to2Jka1oWHzly7/m1FMXkctchGnPI0nmYtgKl166ElsoJNKEKJpyfm7g ETTnqnnec1Tg2EEgyTJYc0Cl2Jp14iBDfCPPHp3eXdOwPtxskUPhpJDoN/c8RD020ZN+AqWAFaWD pIgFnLHoYv7tMw/wkY/cw9oH8gglwDRNVLPKvPlzefFLL8LWd6FqO9qqrIXIFzjZUaqVPci4CLFF hMftv1jLy1/2v/nVL55Aka+gq98jk5egbUZRIwxsnMjivnvSclpNi8jm01sjEp35c99y4lIf00Wl l4K4adW0m8uvf3Z6j+6oj3/sD8gJIdHhZmNoahemGCdW9+CoD1Ho2cn4SMQdv/olb/+jv+CxJ0bR ZS/33bcet76QmpeQNfLEUYnFZzooaojEIFTTxK0kQ0OVvORl5+B6Y6haHbeW2j5btj6GrpcIpMY3 vvYAV779g3z/20OM7FvMwOx0AGN1D7EyksalgJAairDQsAgEJ3ZadUfuS7IMrroWHpVipv5BYslF gvVrBTfdBFetODpCTSHOBelbvO6gplpHihNCosMlLXfvfwihlhD609z74Br+33c/w4f/11/yo5+N k8QaeRYhkxz333MPceIQNmImSjux7QK/9+bLgKZBDER4COogLS6+5KVY2hwAElEH1ePJJyEMuzDi bqQ7m/F9BT79yft55x/fyqUvvo5ElOkq7EWKANk0ov16Ab9iItU6jmmdiFs0ic6y2JtWwZrVRyb1 Vq0SrFknppvtelh05slaJD4atdjEc6rOokYqoXZsjqjXRsSO3WtQjG1Y5ihxNAsZazTUs2nEEbos 4CoZdu1IGB7WqNYdhAgI3AQhAmwpMCIQSoWGKnESn4w1Gz+qQthNJpNe2rqHNiGTLJ4miPAIlTyB 6GPTph1s376Pn9x2C59b84/o5gaEtoW+vj4sU6A5GnGsEgTjUwKOx7u2aEqy9OFjdNePBscwfbqF 4+adBf5tsjOweOBnAM1JJdTYSJTWP3seIq6x9r7NBNJGankMLyKwMoShRA/zjIxYaGqCaQXknTKR sLno4iXce0dIYIaYISB8wKJ/TszwiIVmBmiWheHk2bFlD0gHYg9bi9EigaQX19IY2m2ya+cmuvts vnTLDYR+iXLpEaysju81mDOYuvidBXDHO+naTH2kxHx4PVKcJ1tGrtwQIJYb7fc24nXtGJLcEBy1 VwUc03yzFo4biQ68uTPd7I/feL1893vexSlzV4j5g68XrvvdyauQOaTwMTyAiEDNs/b+PZx9Tg/5 7n1UqjFnzjM568xTuefuJ7CiDLFMUxtCBAzt2YpmePiBT7+eI5udRRA4SAp0K3Pw/dR2QkYQZNiy YwvLLoBoeD+ZzCwMAxpeHsfS6OqrgUw9RdU5wSptKak62bAuJUTbjU//7vxuEusmtzkWHAdJdFzU 2ZGI+I9+9CY5MHehvOtXvRjijPb3tqOwZccGbJHFDBOk0Yetxaj0YsQ+T28qEYdzUZlDraqyb4/P ojMWtH8fGgpIk/4FORTFw7IiVGlQbYRs2zGGpmRRYock1onwQKuBUqagTCBkCdcLqNcTwmgCQ6pM TDzJpz71z1jGNQhlEZYtqNb3H4/bdAhM05RqadPQbr0vX9l+ZykHxYckz6I7bKdhfRwk0XEh0aFE /C1f+bRccs575Kc/8W2KI8u4+JKXAmnqY9fQT2XgV9i2YzNR0zNS/CpuNFnB+PC99xMEOtVqiCFV FK2fl7/s5WhKFkGAGboYsc+ChfMpdFnIqBvdChFKnqefepxGHJPIzOQ+oywkBaJY55HHduN7BkFc plEXGPkATUvYvqPCH/3eG/nYP/wWt76QKOg6sbNhL+yo2PziNcjHHoBHZdrRrPW+fm37nUel4FEp 5GOT3dKeVZyn07D+zyKJpsP+4Z3y9a+/Uv75B77N0JNFGsocAlWSsWZTqdq4rst4qYhhzCLwDXQl bk9rDiwNRRQBMM0ShhESRPuo+lWSaASFKoo2gtTK+JpPoJr87qsvI45MhBbi+ZKevhxbt+zAFmlQ MlBNAqXQLsqvKzpeeTOSCll7kJyjoWHx6stfjRAB1RDuu+dBLlp+A2tWP87YPo3R4jdOCJGmNKta t/6IJYpYcpFop00Ok/uaMrOjE0djzB+AoyLR4dTXBz90hTxt4Sv42Z0V/Mb5lJRF2P6p6GEeO7OT vcO/Yf++LsJGzLatT/DwwxuRiY0tutNkaBRRV3QC1aQYziYIdCBLFNepNxpIJeSiF/enpRykXc8W nx0QRzuRkU42E0Pi8dDaXxARIJNsanwLDw0LJ0mJlMgMgjx118INPKRan7yIaBZecjYuC/jUJx7n Na+7lR//cB8799wlj3fcSCy5SHDVivTDzQ8deeu71avlZK/r6fs0dlYxtgnXGeA8DrmzoyLRdOqr 7t0uP37j9XJg9jnys58fIw6Wgsyhi/QQrlpDSJPl57+IUqnE2O4nGB+uIKRFGFjUYitVOdIEmQYR gTQxunEDMukGII5VxkZ93vOudwBgKXvpmZ0wMb6J7lk17GxIJjMLTR+lESR49OMrqYGM8Nu1Qy28 6EWXQ5RBUzO4RZu6m9ZVJ9IA4eFEForw2T/u8KdX38cfvfE2xsZO55ktkw7Bkba6ORSSV35h8sN1 18GXrj3sPuV1qyc/fG2GoGNnX6OlrTlm04QFlq886o77x+yd1b3b5Z13bebvPvJNtj6pEoRnkBfd uLGKEUNd1QEPhI+txVQqI5SKe5FJlaDqYOa6SGIdS5ooWBB7BJYGcXpqER533XEbK1e+DD8YwHUr 5PKS81eexuc+91F2D43y+te9k117NqYTDj0f3xPs2DOKJs7ECHW0OPWuGqpshgMgEyuEioGqpNLH 8336BzQscwApDQKlihOKNAYV90NoQlJmwyNlLjr/E/zJ1Zfynvd+Sw7OE6iJTmbesd1H5cqVgjtX SG5+KP3i2i/B6g2SC2Rqw8TLDioga0uhq1aknWGnQ2epyNdWwruZ7Ka/evVkwvdIJgXMgGMm0dv+ 4Dvcded6wmCAOO5FSJNIKARaApoGrTiONCmre9i06Rl0fQjTTA3BrNOLooYoop7Ov9dipO/TUPMY cWrvjNa2E/iX0dP3FJXyfmb3FwiDKq++fJCAcylPbKCQLzLm1ejty+I28vzw379PtSoQ0qChSozY x4ktGkoBJ/EJ8Qj0kJERCz+qkpEGbkVQm1VBiABFaaTenCzQMMfQgzK6sKkrOog+vrzmHn7444Qr /2AF7776QurhV+Wihe85Niv1gvfRJhGkCdm2az+DzbN8JaxZO/Nx1wm4pvn3edcIHr1m8n8dHWfl B9/73Gfxb7jxfbKrME/+4ud78f35yCRLqJoEqomUBkgTw4tSQ7alnmStXf7q+wFWVmdsbB+iaVBL 4dOIJ7PpgZrOBEGZx81f+Qr7h87GbZxBpZGedqgIClYDRWvQ2zuHjD2PQj5Po1Hmt78Zh6gXX0+3 1bDSSZKJT0Pz0n1Hc9i5Yxdx0o9hzaLaCNGkweDchSSyn8DSMJIyZugSGgqhTED4ZGIF4j72j3fz 5c9v5x1/8HN+c1eGZ7Z899jspVWr0pzYkeTDlpLm2dYfgkAwY6ntlLqlq649psVjnrUkuvFTH5Y3 fuxWZLiAKHwtul0m9iw0WcBJoGFFNESEE1nNyHAZQmgoJksWnUu5NkQ2kxq/MtJ54qlNSGkgpU6o 5EFvzvUKrOaAl8kEJtt3l/nx97/Cqr94NYEnGRvbSCh16IauLptSaYK5C8/gicdG+Ou/+t/p+SXd ZKI8EFI3fQzfo6GaTbvLIpOEaFqISEwajY309ZxCvZZh8Vmz2LYpJAkidKEQJnkMHwKlAJQJZZIS zIOyBt4ze3n/tV/h1a+dy8c/+UY8/6vSMPNHl/1ftUqwalW6alD0KHwhnlwtqKWakuVHvsDLdHGg q1dJbv5i+vfylUeer5sBz4pE55xzpty2LY8nL8EIswRKgSAEQ9I2VtO0hUZDSqCWflbTOMjcwfnA pAeUzXdjjBSIIgeJgRMLGqipGlNS4qFF1IkwkwoPPr2Px6/dxec+/ya6Cy+jMlGlp6AilRyFLvjY R/+Nn/zwYZLERMoMtuimbCrpzNk4bc5gxD5S+ITCQkqDJ5+os+RclSjpoVwuUugKiOISPgKpb4dw YUoe4QEeqCFEOhk/QWIRSIma9NNQB7j9Z/u5686Pcu37X8y733MBu/i+tCxxVL0fU8lwEXyp+cU1 h9x8ZjSJ11rBiIfXT9YtNRuwH+We2zgiEl3x1pfK2382gowW4amzIE4n+hlJmYACGj4Bkx02DM8n UFMypOUUHnacpatrFpZmUa0/TDbTD8DPfv7L9CKlkepWPSbQNQjT+fAEGexEwzVDDC9PpFS47ppv oYg6C89YSP/Acp56+g5Gxkcx4m7gVGy1h6Is4CkqhJOzWAO1mUgVgPRoaD6j4y6QJWlOt47Jctbi l/PrX95H4M0hET6aniCCCgY2oZ+GHgLhY0cZkBENBUg8fDELP+nhs/8ywre+8WWufOcy3vWec5Hy p9KxLXLO5c9dI9EW1glYfaFUOismlwLvvwau+eJxOZ9D2kQfv/F6mct1y1/8RwkZLUKN5+H4OZCp 7ROoZjoToyWF4rSRZqAxpdMGpC7+osVzAehyTiWTmQXSwFBPbW+TGrJue859JklrnxVRhFhHCh+Z 5FHjeTSUBTyxbZS7frue/SP9JGIZSTQXT5tP3U9VlRE26I/72h4ZgClHU2kCGBFEYYYksYAamhZB pDIwMIcoqaEoE6mjECqESp66mhAoBZw4rSCIxF6cxMdOms+iTL1AX8lTG1vEP/9blXe87XYeuM+l WCozPP7T56REcsoM2Zu/OFXyLL0qXRfkOBEIZiDR17/xEdnVbchP3HA/sXcBUbAIk9mEMiHCmyRI 86ZlknRQdKG0p0O30I7JCJ/ufA9+VCVIVMrlIoiAfcMuJKlUCjQw/KaUi33qIockQ12zQNPQZYFA KaRLK4R92N4SMoGJHvvoflNNhiqBaraDlSPmM6Bp6XnpMTLJQ9iHEwsCS+OedT9BVxcDWUJqaCJC VdNJka5mkjG9dnASTZvy0IRKnggPV3fTKUeiKT2TAo04ohArPLUxw6pVX+f6VRsZ2ReduAK31asl V6+UUpx30OJ57WK39WsFj64Rx3sFRq3u3S5bRWSt8o3rr/80SbAE1V9OKBM0LFKaeAftII0wp/ZG XdFTQkWTzaHaNkhTlUgCDEWmT33i8dRT64H+yf01t0s9s1SCGaGPIvci7AxWWCeJ5iKUCrEakEiD roKgWq2SSAMDms3PDQLRhxkmwAS+lk8J1lyeoaErOJ5GQ+2l7g1jZAIM9RQALrnkHACcuEYjzqCJ ACc2EElCXTUxYh+hVLBEDTQQsorU8uhRD/igSw1d03AjFZ0MQs7j4QdK/P3fPcX//F9ZyhPflLPm Hqc+2atXS266rl1U1tqhZBniqotT1/0ELdvZgtZZhWiYbxCt6GuYqHiKjp5UECjUFT2NszRjLmkM B/Q4nREB4MSCuqofpMpCQ4HEQTHqCNcgERNkCz0AKCIklgG6oYMLgeZjRKlUq6t+U/WUUfRdnL54 MQMDDS5ceQaFboV6Ncup87MM7dsLWIyPlNm8ZQP7R/fw5BP7UeJTUcUCIj9VP4FigfAmDXdjFCOY 1bz5Bo3GDiLmEoQCoZYgnoOlZChLPfXoRHrtul3mne++mIsuTNvz7d/nseaW1TTK3VTDbkRo0pAO aD4BHmZsI2QNQxtkeF+N2XNKyP0hnvtTOX/w9c96gOXjD0rxmQ+kQchOW2f5Srjg/CnEeS6MsIMM 6yapUpEr/DQ+Eietb1IPqvk0plLmcAewCGIg0Rkf8+ku5DDNGl4tZHbfLGSSR5I2LNewIPLImB71 qIZNjTe+8d1c9OKFSPlrXM/DtEbJ2gFjxR309y+gWBujpxsgwMkJXrSiz41aAAAgAElEQVTkLELm MT4i8N1Bfvi9fWzZ/lt0DAhTwqCCHufQo1OI8OjO92BoOfp6TsF16/QOVNG0BlFAGrdqKX09ppCv 8mcfugJF283ufXczq2cupl3m/R94JT/6wRCPPLaPwLLQ/Z4pIQtHZAmiIWo1A3U0wHE0TLNMpyY4 HFrkEZ0BSZpS56ZVbbf/ubbep/XOpDQQUSFdHyyaviBLF2nwLVTNth3UUCWZJCSkad+07KNm944w tPGjKpov6erVsTMZvLiLnD8XqWVoyDKK8FGyJf7p71dRqpTJOBO47gQSj0zOIAo8gqDGrJ65SAn5 7CxCfwgrq2GHKrpqkbcd8kZCJG0+9NdzaVSv4+GH1/Kd732fJD6VJBzEUTXcZke0vp4+xqv7KJUS 5p1yGrYt06i1GqF0SFUj3M/7//Y1CG0reUdSbmTw/YC+ngKFwgLe/q4FbPn7G6jU8ghFx4jN1NME 9GzqLDS8iGDEYWDAp1icwLQtMnOPYKSuXiVFK7bTwvKVcM2fII7nosBHgRldfImBqzTVVOJPSVpC av8AGJE/6TpDGog7YK+aZhCF0JXLY1jpY53JZnjg/t+iC4OGKgjELhwt4m8+/EE0Yzdh9BSKktDw dtBVaCZQw27yPS9CJcDJSuxsN7VSg+zAbFRa7YLTg2f6nXZbmEp2lN99wyBv/eO/50ufv4M779xM JexGEwsQ0iTTpTFWNTAsSd3dg19fShTMQaqbgcFmqEJw8SuWk8nV0NUaMToFp4+urIXmaAgtZNGC Pv7qr1fxj5/4ETJUIJ5HEEq6MglhLcax8nhuSN70CIIcbj3Edw+2MzuRfGudVP7p/QerrS9fNXO+ 7DnGjCQSBKm3IXyaWYbUrlCndskImtN2WrZSoKV2UtixXS7yOPP8l1P3hpFqQt98nXqtTq1eQVAm b6jMXTyXGz72Pxgd30Doj+H5kt5uE9taiOf7WKbJ7FkFFD0BTLq6U2N8Vm8XABnHAUq4bonZc+ZT nhjBdjx0R6XPLeE4/QztrnDNdW/iqmtzXHvtXzM2USHmbB555EkGZvci483IKFV5py6w2LkDEmmm 6RxpcvElL8Xz7qOrX6FeD+nK5ema60CSYU5/jGHmeHpTBaFUSKSOAOw4S1jzqYtmE63SVoJMCce+ gLrm4vszN4yQjz8olbddPPnFVSuO/3LkxwHTkqiVy4Jmtlum3lYqYfwpbnygmlMIBCCk2SacFoMf q9i5Moaup+3sQptMr8POnSWEWuKdV72D9171MiaKVUK3TBWTjG5QD6uAyeApp5EkOYZHXX77wC/Z tTPtsvbgg/cRBXPIZrMsWz6LjJPlJS99FZf/zouYM+t8ArkZz92E3d3HaDFiwemDlIt1IlFkzS1/ yd/+1WfZsf1xLHOYSAwBkM3aCErMO2UOO3dsTxeR0WOIQ7rzPSB6KVaGyNqDKLpL3rHo69XJ9RSa F5+qf1dIUCUoLrGWIRO5NLwKlnUKuUyGUPfodvrRjRzD4z+Vs3sPNrDF29O1WSXLEFdf21zf9T8f nlXa48AYENCWQoFqYkSTT1XQdukzKKLIyy7rQ1E84tBCxhOAw/7h9Xz4w3/JVe9dxcj4I1TKw8RK QBQ3MDMOBbqZO28pn/7HW7jzzi0ocdr13s6bjFdiUF8FiUY4Lrjv16PUkPzgP36B87ff57RFy/n9 P7yMN7/lDAyzxvJzXiE2bf2inLcgS7WcQZN1Pv+FP+eTn/w2u4Z+zktOOx3L7EoXzXPTsRJKJb2Y KMKJNIqVCboLYJlp95CeHpuMY6NZFqZp4tiT9qMtBXHsE2CiRlObcRmmikLAyMgog4P5GaWRvPUq xGdUxDHmtk40DkuiunKwy95CS9K0Cshg8iZqzWxDQ4nQpYuieNhORMb2qLoOc6nxl3/xLk47/Ry8 eD0KQ+RyNTRNks0WsK35fPazX+XnP/8cfjKbhNMxwrTUNSnpGHGIFqYhBy0W1LQCRNmU1JrH45tC Nt/wbdZ8cR/X/dnv86735KTvnkVXV4TtlFGEjpNJ+MQN7+Cuex6iv9ekUZvAyXaDqHDpZUu5994n 0UyJdFOn4YwFi6m6O/F8F03xARvbtshbgsm0xnckpJLIII2TxVoeJTEwtEGIqjTqFTKGgZ1PY1Yz rSEillwkWHPRkYzjScWMaY9Wt3k42A7q/O7ASsGGcsD3wkMRPpncfEhqeBF0ZwVxrNLXNwtFVDGY SOeJZVQcu4v1G/by+tf/DbffVsWVZ5PIfvQgjUBrWPhxGpUWIkjXcdWaxqkeT4mQ+7rC6Ggvn/z4 vZy96FNs32axd/tSDPUCCt02+a4ChR6H1776dWQch0wu07StQFJHVw3icDJhbGUdgqjalkRRM/iq 2BaKcrCYbt0jNXIRSZkgGgKtjqZFVEOPnKPR8A9tWD8fMKMkaoljoJ0nOxCZJGzbS432/z0a6uT/ 64qOTPL09NXZvb0LVe4hZ0vAJIkcQDJn3luFHL1VBkHCX/3dV3nwvhGknIOrZjG8OVOOl1ZKpqgr OnrgIiQE6CBVnFgQARlVp4hJQC+6l57nm9/ydf7ln67kVa+KiZN59PTtRigB3T0K+a5zqZQq+O4o hZ4+4BmkKLXn52taWkRnWZBIcCyNfO7QgjyThCAUYs1uSyJTCwlDD9tI79sJn6b9HOCIJFErN9aJ A79rBR9br/b/pZV2gAUUbTemnsE2LBB9qEpIInPs2fttqSkDvPNtH+Weu2tE4SV40TIMb05aKktK 5FAm6EmlnVB1YkGo5JtrgzS9RCUlfBEFoixG7BPKJF1NSKvx4b/6Nz7+0V2Uy2XKpVEs00LRY1Rl mL6uiP65c7BthWuvfRtJrCNEiC4UzGBSIiWRge+l4QPDPuAWylSyCBkQyiSdVRJHbUnkR+PoeoNQ afU/ev7jkFn8lrcVymQKaVoSqCWFDoQu0jRJXUk7vxpRmaHdjyDUMoY5lnYrSzykEmLZAd093bzz HX/N5i0RMloEXjdOZBGoJoVosiog0MBRNfQmUVteYcubjPAwknKawW+lZswQKXzKatLshdTDj77/ E9Y9uJcd27IUJ2zqFYGix0jTw7TAsEz6ey8XqpJJW88oKnUzvVWeV8M0DUzLaau+6WCLyVtbHG+w ZyIk8DR8z8BtqrBypUIYVKd4w89HTEsiTU9wiKb1xg7ETKouLYdNDd9C3kQyhGMp5JxezPzUJ/CP //gvuf83QHA2JrOpq2m1gBOLdPG8ZumJE1mUkx5C0Z96g7FPYGltkgdaWmIb4KbxKqFg+M2KyShL YIbtbP9H/sdtDO9fwrbtITUvoVo2UZUuHNuiv+cKMTLxA4kyAkA9DukOBV6tgWWlxn02m7auMW0L x7bQxVTJ7B7wgBmxj+fXkVTwfBdFhtjZ7sPf4OcBpiVRGBysp1sR6gP/bj31LbTKMCI8UNKmmbMH 5mBbs6nW91EtJ6iJwewBh1x+AV/76u3c+asRwmAAM3lRWkJBTKCmhmtnrVJL0hhJ2mlfF0q7w1ld 0dMuIdJENKcd1UUuVXXN37cIJZM8jm7w4b+5kWIpx57tgvFSkcT1cN20mqG/5wqh6QmNZgS+IccB sK25OBmJJiJy3WmgU1GiyWlUzTiRFEb7uEiLwNKQogtBHkMtEPgxxKnr35U5/CKAh8NzshLSDDgi dXYozKTSOpGWxaZPsFOwcDIOCiGKkuOrt9yFKudhMpuidAjNDGVSy7xlD00XYmjNZzsSadm6ltZv AtWkFggqZckvf7aV0RGD8f0ldu/fhyE9QqlTbaStjGWsoak5fF3Byjq43l5UmQ56aSIkb6RSeKa5 Z7pQ0rY3foKupHEPRQtSuxAQWpFG9djDQIfrVnIsc+MOR9BDkuhIB+hw6Ouz8DyY1TOX0K8S4aE6 Fv/86U+wfXtIFPRQbi6fmfGTydkhoTpjjApoF55NqUHqQLuYrIkW4Z1YIKSJb/TwvX+/G02dR62q 0qhrDJdcihNFcs7lYt7cfmyhoPjV9kIy3T2TKmjturUAJM3KxgMHqpWkbqiSuqKjaQmmpuN5RdzA o94oUa7kqAQn3sA+ltWSDkfQQ0si6/CiKFDN9hOui+l3t+C0M4mTPJ7fLEYjXVLha1/7KZpIVUJa WutRV5O20QypBGm9WmgZ7odDK1Y1nXepkTZi9zmFW795P657CtWKZN/ebZh2mKYiBhaj6lWEUqEn PwtVC3DdBqoVEOHh+S6uN3OcJ5RJ+560zsGPQhAWtmGRz+XIO9qUWSEtIh5PydH6fLQqL/BvO+TC gYeWRN5xEEWK2l57FUCzLFBtnnxkG3GUoRZkiGU2JUmrJ7WlHSSBWlLxQAJNRssn1d6BEimUyYwp G5Pd/ObuX1EuOVTrGarlHMP7ojQVISpESY18QTSXdgCVDIqYPrbTkkiJ1LGlaIcl0mK9hChSaFWH uoFHrRYiCaZ0HMlYrxFv/L0lcu7AWyl0ZeUHP3SFfLa12S3J0VLJrc8HNiFrbXPDje+T55xzpix0 ZWVfvyY/+KEr5IH7O5Q0OmabaDoc+ORv3rEJx0jVgZ4AkcoX1/wUmeQxkjkEDOJE6XJVmTid4tNJ qpkIBEyptJzuPDJJOMUWav2m9VKTfuK4lwWnnUrgChB5Ko30gNe8549QFJ9qtQrCpV5qTrysmBi6 gWWmHlrD9ShOFCmXRvG8g6VeQzGbFaBpebBl2thGs5c2oKmpKv/6Nz4iM9l++avbbar15USNC/jK mp2cc/ab2bX3+3Lv6K2HnRyZy3VLx14sC11Z+Zl//dGMEq1File86vX8y6duZ8fmARJ/GUF9KV9Z s5OBuQvlrqGfyiNpqXNCbSK9Y2D9qIogxDItstlZPPnEfry4C0vJTBb8q3o6exbSKdgd59Dy+mbC gSqvhVbAr1Wy0gkj9glF6kGuf2g7lWqGai1mfNRnvNjgtW96I1K4KKKOrsRkujSEUkRz0gOVy1MX 1ZtuMZlATWfdCmmiaekiyJ4/mZB161b7mq+//tNIfylmtATJmUThGQTeItzSS3jTGz/N6EgvicxR GpteMv3Hzz8mFTVExHMI6pcxtPtUihNFRiZ+IA9ceLnu3S5vuPF9csvjffiNpTSSJdTC80jcFVT9 SwgmXsJFF36RsX0az2z5rpxubbkWjkt/okMNrhOmxqykRiGfa38v4y50YVBWXTIyNbaLYjLKTai2 KyJbEsSJRfvVQmcNE8xslyGt9lqzwOTUJmx0WeALX/wR5ZKX2jzUcF2XiWIDTWug6lU0LUHTx4kS D10bJk5cHlx750GHsazD2WoWSI8wVnFdj4ytIrB4y1veIANvAa5m4kZqGmw1Q3wlTyNZws71s/na mrVs2TLMph3b2bL9qwcN6sPrx4iCBUThGcgky/1rv4PrJpSLLuWiO2WRwYz1GrHmC98gdE9HJtm2 9qibCgifYmyxf6SfW778bUoTISNDE9MeE2YgkRABUh5Z7KLTDqmbSnuqj4aFgc3SFZeSsWZjWxZR XIfYwsmECGEQygA90KmrKdEysZLGl4QH0sKOs1Psm5YKak1bajV8QJppQFGa08azjNhPI9lNshpx WhPVWdZbGwPbPBvP9SmO+gT1mNLEUNqmL6lx6qnz8N052PYAIpyLEAFCSa/d9310M0e5mEoYRYTt tFEmCdulMm6QdkgxtNkoWnMlI6VOsVjkF7c/RiDtNFeojqFrdbr8EoYcw5SjhGI2//6tjezfp9Fo NJgYrx208uToyG4UWUgj+7rBY08I9u7tZ2hoD0NDe6hONNi353sS4Kvf/Kis1CFKukmkSazuAeVp 7GgLeuxjJhXMpMJPfnwaTz3TQ60RkST+tKtdzpw70yYH78Cne0a3uznnC+ER4RGJEnZ+P3VvGABT dOPkFWxLQcoAM+ma+nM5OdU5I6vp2rAHHPdQLv+htp1JQrWIZmsxxcoExVKFME7jVIYVoqgh+bzO 7AGDM88aJ5cdxsgHk2qXmUs52hBpwFFXYiQBisxQ98toWMioi5u/dDcKvWjhmQSqyfuu+mO+f/sq vv6TP+TKtw8gjO2EyggjozaN2jL2DaVEKpdG26QA+PXdDxJFBYwIirGFFs2mUnuaseFxGvWE0Ym9 1MMqIxM/kL+9ZytV9wICVZLrNbn//q9x9x3/k5tufhNnL63jq+PIJM/Q9jKRP8D+kTJ7h8pUSuWD 5s4dVp21bJHOfFTr+4PSHWIyAdsKD6y4IO1w4TdLKiI8nnxmB4gIRZ1qdLXsGin8tqt/oB1zoO0z nYp7VmjaY15STysXgRiDarVKw/cQsotqVRBFOiLuBpltbpPFd1P17Pv+zIVlMl34D6PetIny+IlN xiwQqQJVCVmz5kvIxCaRJpde8mLed/UfIsRu6o0nufTl51HINwiUKkKa3HXHb3HdU9g3pOHXVWq+ 3/butm518YQ/6UjoIcNDlzI6lmVk3Met2Ph1Dc81GNlrYMTddIscq665EqkWqZQ2Y9rDfPD6K+nN qwilQqCaZDPzKI3XqFYEjUYd74DylRlJZEfTB+o64cRicsq0VsNMKgRmmBqTnpbONgUscxjbsVH0 VNxv2Vwjq/USBoNT9tdSL5312Z12zHSGc0Mx2zVMM2FGO6kFRU0NfMC28ulCeaqNGutIUWpvJtUi hhGAamMoMcP79hMqYkZJZMRpGxvRbLPTUmem4qZpj0il2uglDLuoxRahtpc//dPXouoPs3//LgJf ABWu+9MP4BARmDXuf3ArSbIYoYVs2b6diXGB8C12731IZpy5mHFvKiWTtFx3+/YxTPMsCFUUPcF1 PSzL4s67v4cTC4qiyFve8gp27dmIqpUJqwVcby9vf+cyhLEdtBp7du3C9wMqEw3GxybwXEmnoX5E Lv50wboDt9ODSZK17QBLY2BOQiLLaLHEDTyQWU5f2E21ucvQUKZ4cZlYSd18abbzXoeCk/gHRaan Q6uqYNrfhwllkWNkPCW5bQm0WCLVArYzC0kDw6gi4m50KwdxuuT59h2VQx5TF8qkc2CG2EYIWASJ ShRpoMU8+XgNGXdhxr0M9gacdUbC8L77MJSQjDoLlYDzL8jjKWmmf/u+pymNJ3i+RyFvUiqmSeLv feeHACjKBEtXXAr6EGaQ4f77t7J7l0oiz6Q2DonwGN6nkcSDFNUK3TKNwOezML5Xwc6PM9DrcdFF 56IIF4VNlKt7mD23B7UZkgilPmXlpcPWE01ng3TGW4wINDVHqOTx1QGIsqnU0moY4X5q9c1oeoW4 Ve6gWDS8CCHGMawtaQOpZtS7pTrrij7pTXVMV2oZw60Zsq1JAgdWV7bOsfWayXsMtKaxrpiQxHTl 8kgCPN8nkhqKtBno91FEzLLzTkeqRRRSSeRkFHRjqlg37amkD2UyOYEh7MMNdCQVDCVOI/dxN089 /Ws0JYuv27zpze9HqkVMy2yrjJyj09WtYopxrLiCEerMmz8/vf8TqbQZK2kMDZWoVF3iaAFv/f3F 6IGOkiykUXwGgGJpL4GIcetNb1kGWJjUfYtqyaNW93Fsk0hqOBmHJS8y0fUSjv409doGMraCQmoL VsYm0JMjINGBN6M1aAfaQbpQiEIltS1iPVVxzW0KeRNVGSFhEwD5goMma6jMQVWLyMTG1+3pDypS L62THNMRY8ZiuCOFHmMkZfSkQt0bxvM8dDOHJiIS4TJ7zgCaFjN/7mkAyKQPIhVkftpqh0MeSpmM K2lW+tutW3YQJipm6NLdO4tSaSONRgndVoj1Ctkui0JOcPnl5yAIiLRhZs8O6e2eD6pHIsskwmTj xsfxk9lI4fPmK85BVcdJlO08/miVKNLRtVPwvVk03BKQquhYZpvVBRXyhdmE2gi6zNM7IFC0Bk89 8RmeePqb/OHbVpLPmSjU0jJix6HWYQPOSCKH1EA5VNS6JaXaKqU56E5zMbxXXP4GJAG2dRaqNFDD PHZO56xz+kikThJr6EGakmiRotOAP1AKHrMRPR2iCCl8rnjrq1FEA8uyaFauIuIyhhkQJ/VUChnb EOo2VC0NUB6umEwXCrYW40Rp17cwTo1yL9nbbp/TghQBb3nLKxDKGLVaiJoY2Nlu5swZwHRUbvna B9i25xZ2bPssiv44KHXsvMS2+6m7u7nnDo1eJ5VQlarGa153IcLYTl3RWbpsBWG0G6EUkdIgTubS 0zUbADOYYPVNvyQOc9j2cvoGbGTSi2EG2JaFZpTIOWkZzPyFp1BvNLBtC7ujovOQkkhv9lvUsNJ2 LtJq9yBqxWhatUMNXWkPsKmmyypc8ZbfxXcNpHwCO+sS6xVsu8DcwYSzl1UQ+g5CY1JyGLGPpoZt 4rbLPZqEag1aQzHbXhVMlVAtFdIi4HRkDFSTQHdAmmRiBaFUef0bFlHI70YQ4MtiugSWYnHW4pen hFHLyLgX3zWJYxXbTlWJaZr4vo9CMGU2a6s8tiydtsoU7MPSevE9gxgDZIWt2wz8yEImqacnlEUk GNSDKsQuQrGwbRuJh6Kvx7R2M3fuCDlHw3L6EQQMDiwiUEeplCXnL+snn4uYM5juL2OMsPnplARh uA9VsVGVBhesOBNFH8LRDX70/Z/wqU/+lijKMjaxGEkXtp2ug+aILnq6bHpmmUSYzBtciGErKHrc TqnMSKIGWntRurb3Iw7OWOtJ6gbqUREhAhqqpIhComzniSfuo5DLoWvzsA2LnN2FbSm4rsv73ns1 mrEPI/LS4FhTDZbVBL2DoC2bItBol1W0pF4mCZv11dZUUmkdpCRd/M6JBSgqidmMmidxWjkpExQR sHvoN3jRPiQG3c5AGsNJPAYHu1DUEFVpoCppXXUul8NuTgf3fR/TNEkOWHC4VR47GSH3sMzUA8xl mipcsdiyaVNabiJ8qiWPUqmEQoBh5cjlcsgk9aZm975e9PdcIVrxqVm9Wfq6M/TOyrHx0R0AaKbk 1EXnUavvoK93MboSE/mCUrWCoeWYPdBDrfT/2zvvMMnKKv9/3ptD5erqmZ48DIOACK64CLogggIu uoq6iLJrhDW7rj8jiFlcF9ewJhSz4iIirgGVbAAjSh7yBGamZzpXvvm+vz9uVXV1Tw+4oq7ifJ+n n5mnu6r7VtX3nveE7znHx/O2cuijN6Iqk8ylu9BMybVX38jpz/k8b/x/V3LlD+eYnigMJCqa26Vc KlIru9huQqGU3UB9ecleSWT11IHdoX78vgR1GAbZXnnRUxJmzEp4xrOejmG06PQaARMRoegpqhJR rqg865STkNJAESFm2szafkQAcQ5dZtPI0JN5q5TMa637WedIpgvC++Fjbvg6u6okNHWMqEschwu+ L0XAcU8+DsuKybkSQYgf1wfXGiXTCBFSqrhAnWrFpdutEwYtNP3BBXn96yqTPTaIWwt+JmVIKt3B lNs+9BQcx8Z0VAzp0+peLTv+5TLnahRKRfIVh1pFo1IzuPPOH2MqCZ1UZe36DeTcdfztEaOkzCBF yM03/oJCsc1MvUuiZM7xqc89Eik8UC1C38oWMUuTiS0B//meKznm8S/mgk/dw5btG5mdsTHMGrat sHHD88Wy6sliRe30wZv9gMfZ8IfSVeWSuaL+94TSxEmDbJxduouTn7Y/QruPUmkrpmGiSh3LEiSp DrLAsurJ4kUvegpCuxdFmcVNlGwKCUM9a0N+w/D0kQXXuER4v7ikgQiIk9YeYwD75D/+hCORGLQ7 TVTVIxER5aqKVCJe8MKno+kpUk6g0KLdjXEdB9u2iCNlrzmiLtqC/NSciHoa65BWp1eAlQaakvlJ eqiTL2WvP5fTyZUsFCIKlkB1Fva15VyNasVFdRQ01eHuu1OIqxhBjoM3rmbn+E6S1CXpTaDbdPP9 JMkYltFbjOxNAXXOOOMJ5Kijqbuy9wM7m/wWq7Tlat77gSu49NJvEfo6c3NzKPrCgnMfS5JoOKUP zA+G6h8TQ4MdVKqESpGAbNZPKk1e8eLncf/Oq4CQMGkQB5JCLdtLZjoqo9VsAObZ57waJ78Zoe8m HkrqDWM4rB9G3wfq19r6qYBhlaOGNR+t9Ubu9X/ez6q/8CWn0O7cg+83GakUqZV1yqWVKNKiVLLJ uRqOoVAuW0glolIuYztFPM8fvE9LZattKego+gJL2T/Ocm5h8L0ozW4UIecflyRqL+rySZRoQCDX OlH0v3QRMVo5RbiOw423XYyUOoo2zrr9qr3s9w4UdRuKCJmey6Jj115FErt0vToKLV7/htfy7FMf hdB3o+n3EIv6oDvGDQvo8Qree96NzEwfSn02YmaqzWI1ADxAARb6d/HeCQTgKfHgQ4y0u/i7Y49m 1fps9ptpTaGwmnxRYcfWOSrVw7Cd+T85Wj1evPnN/4RmbCXSt5MokwNhe3YhwYLUQv9LH/I3+tal nwoYDvG7Si8VIE3cIB34Rn0LW8nFLBtLcZ1xAPxAkoiIUqWcFUdlHtc6UTQ74PlNastGe29axE03 37fX6CwdLl73Itb+TSDYc6WUr2XX06pn3cIAtmPhOO6Sv38YrnWi2HpPjMTAVzJrJtmGrpY56KDH kEqDVBrst99jCeP1g+fpdgchurzn/WdwweffxIlPy6OYN+CkW4HshInEKIgWX//6pUxO7mBmusHO XZ091nbt9TgThPN1sEVSi6XkGJFosLJ8OMc/2SPyV+O695CzV1Iq66AnvO/dV/C2t34FwRo63ibZ 9+xf+arnceRRB2AqE6jqBEJp4spWr+XIXKCLhoVdt0thuIjbDwQW544i0UDRxjn7rBdhOZvx/Anc vEG+UKBcLmIaAYatUOjdKwUXRiuniCAIUJUI27bYNTm5wCdaas7QAh9tcONZiN4ETERIJENI/AXr 2VU1yRbnSB017aU+Fmmkh5WGUWgR0OKQDRlJ2m2IkjkOOXgdhj4FwPe/v4tWO3uKIooE3nIU0cI0 Gzz5hDzveveZ/ODyz3DWO/+e0ZqHoo2jy0kMf4yf/uRWJqckux+64PwAAB+WSURBVHc3aE7P0m1H CybhPmDGuh8V6Uk2dg/21A7pcpJQA0UEvP4tTyFJC6j6HdkLtUxU3eObl3yDZrPDlT/cysz4WlpN l5nZDhMzl8mZ2Q5f+ep5HH3MGqS2HSlCOiJPVzEH/ku/jAILSdK/w4ePKFgYnfUd8H4vWyQaCKXF Wef8E63mrYBPzi2gKbNYqgcyh2VauAVJaSQb93L4445gfOpCaZomlZKNYSsLdEN9v2j4WBtWQSDm C8mmlj0v7HW/jhRjHGKE0iJfskh7x1q3JTBk1uffl90uRse/XJ5//jkyClagyyq1sYxEuRx0mkXW 73cYSWxn5ZGZOdatOBopRkhSj5Y/SaerIZRxpDQoVzwsc4pjnriW9/77MzjgkRaROUtoRmze/DPa zRkUYdH16kzORAzXYAck6m+K7sOWAtLivDQ1XGgR+qswI3OWnHYHbz3nNJrNgHxxBzm3gG2upeRI brzhJn56bR21uxpLXc7Lz/x3Wo0xBGto1hvZByCaXPC5N3LAAT6GPoWt3JyRU8m0MSHzSkC7N26k X1cLVTObd9072kKNgYPeP/qkyPRDUgSo6gwvPeM0FG0KJ59t6RFE2KbFitWPZPPmrZRHNqCpziAP smZ1DU11EItqeXGkkKR1giDItmSnOpraRRERViwXjGvuaj5xrODHM0h0coYJ0uBxRxyFqrfQDX1w nCXkQJsjFBD47DFEveNtkpBZp507cxCvQUiD6669gcc/7lmcfPKrefHLXs8733cJHuvo1ovcecdu pmYbhJ7AawrC7hyWVSVNM+VCuVJm9foU1WyxbsMuXvuvJ2DHAWbkIZIxUiVH0DRptbLnhuHUniTq b4qGrAPWJxNy9ccH67KYzWdWsnpVauYxAp1H7lfjY595O6pxI27hPjotkD1nst4VfO6C3xJ5G+iI At0o5KZbtvPhD13KPXcmzM3NMr57Dt+XeJ7Hdy67gMcf6yHMW4i0cUy2DwRnmmZk1ifprX0Ymv4R 4mUfWDx/7PZ9pY7IE4lRNLK9Zed+4FXst3+YdaL6EQUnoFzRKRQdnnnKi2h1csxMyyy9b50oxqcu lPtvXMdo5RTh9zo7asXiQEsdRzZeN6uOe57fE+NnGwJC1Zw/ptSIOGllU2r9lPZQm1AiQ7Qox9bN Mxj6NCptbHuUoFMFEdDxNslnPetp0nH2k1XlZNmur8xcAm+TvG3TdwnUzmBrpZAGMlxPylrobZ2M ZMpPh8b1JUqITPaj3ggIg2XknPV0ul00ZTkb1q9g1epRDjighO7+gkCdIVW7lMspgZzD71nQoDNv HRXYs5UkjhSkMNCwMvKQzX0GwOhgyimUeAtnvePv+cdTH8fM1A1IxjEVj2JxlkLOZGzlYZx99qdI wkcSxWuIxCgBqwmUAl/83Ge5+aZptm/fn7Cj0qhPUa6oaEad//rYWbz1rNNYVt6Nam7ClFMURRcR Tg/krG6QLgjVpTEycLYjMYqudSAtIkWALicx2Y5bnuIzn/83uv5thMmdwBS1ygrsXGblPve5qwmD gxi/fyNjtQPodDQmZ78lRwpF4niGVvdqWTCz42Wi7vGrX/0SAMvM3h97qPjad6ydRBAZCmWpo4cp mpoHLEzdHTjlhz56I5Iuftrhnq1344crM62SH6Ao9wHQ7m7histvRUYH0qIy+Dvt+kp+8eM2WryM UMtyPTItEIgaTjAC8f6QZgPkCd1Bo0HeLvH0p/0/jvrbV/LyM/+Tdn0lyAKuG5OkdZyczgEH5kkT nZzqowgPywgxTBXLMhHSouF7A623Ans2p0lpYPUSjV1VgpqtOICs1vLoQ1fzpre8lDi5B1WfJog6 lJy1VCqSYsHFsTTefs7X6DbKpPGK3ije6aytOi3ipYfx+jd/i/u3JExOpnjdiMach6qUKJfLnHDC AVx59Sc58aR1KOYNJNrdqOoMZdUfDJIItf7oFoc4UgaS3KIyS0M66HISobTQzF/y/vNeyKv+9Vju 3/nfpNyNYykUnRHyjkY5X+LCC6/juus2QVzjrrvvotmy8YMGzUaDyZk2z/+n55J0MysUBS3K5fkG RolPGM7Q8D1SdCwr+1moR3Q1Hz1M6SSZ1YpSlTgygBy2nc2G3PAIH92YJFR2cfX3v98jRy867mgE no/AIklH8dUCuizSbNns2LmJIL2ORrdJqLSyzH9Py2XKqcHsJCNtZO892Xyl6bndWO4YmpYgZZWr Ls9uoiAo0ul2GXVH0JTlOLaFabdIYptU2rhOCcOUpBhI4ZN3Utphljhd0mPTDZ8wmMKIDEI9QsRN dHs5TzjqUTzpiYdTKvk025vIubMAKNLt3dEW5fJBvOtdX+Huu2YgXp45uRJIsl75UI8y8X5q8dY3 fomz3vVUDjtsOTKNEMoUhlFj1doyneZO3vyW03nNa3S+9MWr+MY3riOSDUJjBCMR1PImzYbEkm18 sZ6y1sBPdhNgYOlT7L/+CTznuY9H059Ex/8thQqItIDAxnUT4jhCGBu58OsXc91Ppon8E7M7mTE6 zQaz9QAnF+B7kmpBpyksCmYWLPh+VoDV9JQoaGGa4HUD6IXvmtYlL3eRiDap6iIIkRgIWUfTLSAm TnVQ5zjwgKyfzcLktrvuR1EOQWgRaaRnmn5afO2rm4hkiJ1MU6ktB2Bu1mWnt4swzVNWxphLi1jJ FlIaRPoEWrwMg2lgBCPQCa0Ot952E5WqwW23NomiEpa/gro2wo7xPKousZ2EuDiNpiwn7xwvotCS icyhxuDmszxfx0vxuj62Pb8FYUkSrduoUc27POWEJ/CIR4wAcP+2Jr4Pin4fSRrgur2ectOiUBTY 1ho2b97KG15/HvWOThqtRKZ5NCOPErSyaR1qlmQTIitOhkqB951zPc857TGc+vxRPH876/dbi6aG 2HZAtebj5nye9/yDOOlp63GdUb7znWuZmZolCgXX/Oh6dL1O0V7J4X9zJIrIc+xxx9Jt17CdmCCc w7RCBAoize64YiGP5Xq4+WW85Q3vY+sWnSQ4OLMelsa1P/82c81/QKgNtm/bQm10JSLVyZfnjyvT NNHUEnGk7FEzqzea6IZPkGxBt11sfQQvmiaMDHLuClw3I4GKRCVFEZPZTdsxiLwiF33V48STjmGy +2vW5UP8zjK++OUvkIhVeIzx+CceTqeZkfhn19+ExKEbhZz6rCM5/Z9fQJTM0arfwMxcHt8H3/N5 73/8DGSJe+8e54ijoFBso+v1TLKslvjcBRfzL2ccT6j9lh1bLVat2837zv2AjDpHIqRBpVoi56hE vkGnl2RtdTWM3vbMAYn6ez0AbrjeFwA7xi+Sc7M2W7feTbWWUp9p90xflLX/6DrV4iizsxFf+dIV XH3NzahyDD8dwUhGMIRCFGQmL1IKWfU/AokF+OhJgEaRb178I3ZPPJKz33YSc7MKs42dVEtlDNMg SVLWbchTnuswMd3iKU/eSDdI8VoKRx19EOWCjR+D1/VIkzaO3URTx7MIKCeYnoVVYyaKBrpWwcmt QVFa/PPzX0YaHkIaLUemBSKliOMHdNV1TM9I4riLquXmrbP0AQvbym6Eu++cIoldBGuQMqXb3Uyl VOPUU5/Kqac+FcdZx+zcNLOTbTZv3UzoBxTLa5mZ6W0A0nVUJY9lWpx++r/x8U9dR8oKLvnGFaxc /WgOPHCM6dk8X/j8/3Dr7QLIUyThqSccy1wzYdv4r7j3rhArNUiAAx5RIp9by2wjWwWvqeMUHJdD D91ATplGjSv8+jc3ccRRa2i2t/DEY07iO1ftAhnw+QsuZfkqj0cf+mik2M5Prp3k3Hd+n0SWEcBj H3dIxpEoRCHEdYoYkoEwbUCipdpkV604TfjBF+XYsjK7JuYIXYlhSlxnBA0Lyx3j+p/fzCc+9F0m 2zauWiIMVmL0tNUhHgjIGZIwzuYLdVWZGfckc4IjxQdN4ac/updnX3surz77DJ584nIqRRUhAvLF zIFWhI6CRVorMzM9S1yyWIVFfUKi63PYuoZuzm/ztfMpSbSMDeszX65SyaNbef7zP77JD6/eSiqe ghm62e4O1cRIGvQHl3bqMWYO1HTeykSKYGzkZFGfvkyWRk4WO3d0ZCp1fvXLaQ7YqGM4ZcKghdAS li0fJeluQ5MeijLLaE3Q6frochfFgouuVTCUCCe3DNNReckZx/PZT/+ArpxCxCbnffjzoExhp1lz g0EZX/HwpM+Bh93G3OS9OKbC7Xf+jK5yME40wqGHPZZWexuhvwk/yCJOVUqQTdA24Ycr2bJrknLp SBqdJkcfvZErr/oInjwImdY49x0/QIpv997rEIGOkAaBUuBRhx5Ot5uNaE6ljxRZ9F2tmQtJtDcE HY1EmlSX98oK/bOxZfJvb/ggt94uSMVKYIRWVAR0HOZXWXVVSScIQAvo7lE66WWs4iq6FNTVAue9 /yt89gs+r3jFKTz95CdQqe1EiC6mBdlOGQelVxZpd2NQY7RkoTqy25EYBReIyVlrsF2X8z/xbS7+ xhVIWSUVoxTjUaLUpSFkJmcxFcI40yn94Iof8XdHl7Cde3CKAZ7nkO9pkVXH4o1verUMwjGS4EA+ 8bH7Oe+8M4i8awjTezFdQWPOo1haRl7pFZyZQGM5ip6S62ms825MMd8rv5RHOO64jVx19Y7svVQj SGp4Yi2kSZY0Vad5yZlHA9Dy6iSxy913bYbkCLrWFmo1n0ZrO0CmNTKyET7VZQ6p1FGUWfRgjPXr jmbzthm0QkihoBM0JgmtMdygRCi9Xv9ethdOkyUK+QbHP/kQWs0ddLw6uizgdX3SkQ719hijJojA /658sNEh28dvkD/9ySa2bJ7jFz/7Ebdv2o/7x6/CFjniuIhMc8i0MFjWO6w7Gi5TDO/76PfV90sS /cfYWoKfdgiMDk7S5iknPYnjnnwoz/3H45FKnSiZIk1bCNGl2Zik07YQIsTqDdD0/BTHWcHsXMT3 vvs/XHHFOHfftR0RF1H0MnEgSHuDsLIeuV45p78FQGaZ8uec9hieckKe6vIGq9aUqJYdLLPIZz79 bT7+0auZaK5DDyrossgzTzuYl555OLq5BdMIKJZdSmUbIUImdk9imhAGBoVSkd3j47hWCc2yiH2f 2tjYoCCdc9dKGa0jSZYRiBpl0qwrWG2zshjz5f9+I1u2/Rg3J+m0Ba977ftp+89GUW/nmivfw67d vyHxfBQ9Ty6fsGy5jeO4nPW2c/n5D6s0w+V84vx3oZm7MfQJ7rh9Fx/90NdppWPz8zF743xcVacr Z3jrOaex8cA2YbwlI6huYRckq9eWedTBLxMA2mIChcH35LU/uo9f/+Y+fvqTW/jNb6/D76wkTU2I 15DE6wjNnZD8LeFQZX3Btmd1vgTRr1rpQkFPIOrpavoKxE6vZNEnW5zoSFmAqEacBPzwsk1cddXt vPUNH2X/g6usWmly1BNqQA13visbr+sxN9Pklltu4+ZbtuF3IuJYJQr+BiHXo8oSHaljpAE5Ve+1 bGeZ7NCMUNJs5VZ/i9I3vv5zfv7LUV758g3UqlUuvep6rrziPq655l5EPIaZugSqiYh9LvnGFdx2 x1W84AVPxPd9TEshjDLfxNSXEUQTpIkN3MgLXnQsYdDE1QVY9oBAAB//9Et49cs+T4CGq0k6YYRF SLXo8N4PnsnuybtwLI2pye2UrDEUNcLRf8HGg3KYZoRrFcgKCxGqKqlUcxhGjUr+eDpcgaaYbNt6 PwcdMkc+p/LYIzbw4n/JjlKpBejBGEJp4Zo5OvE0Lz3zNFavSWjW78FxJd2OIF+mJ4WZL+sIKfds ry6VDRmHY8hoHb4SZnOkowKKCAiMCnrQwcAmlWVEbzHwcGfGA3WI9DFQBqTFgSZoWJTfV1T2f6cl tpBKA1W0SeS8w6uK9qBOZcV7vhaZ5giMSm+hsbnQMvbmPtpaQjeJiZTCYENA9mQLS7kjyz4rLXKq TxLbeNr+OL42yMWEGhhyGkWEyDS7tuEMslCygOTYJ+3Hp7/wVBTRGhRWx1Y9e8FNvH38BnnGS97A dddtolA8kmf+wxM5+KAyYdzCsZvoehehlllRs7HcMUZqvaltDY/2XFaKUPQUyxKs338Dw/vUto/f IHfumML3trFrvEuxFJKky5jYdTfnf/pG7rh9B1KGHHzIfrz8ZR9AUe7G88fp+ndgmTZ5p8qyWhEn L1m5psD+618k9kqiiy4+W77udV9jcmoVpuaT+ofND9o02xBXB2/yUgTYG4n6dbfhXSCDBXkPMBSi L3ONRININSmS0JDOQtHcIglvnyxSBIOja8nHGx0MP84sqSqzNZxpkslRxHzta9jSDlIUlpZtb9T8 bIpJT0Q3eJ1WjB50iLRxnnHS0bzz7a8iSK/CzfmkcaZMHCZRP0K+695L5Nysy8REh+npLFEYBTux TJMEAzcnca0CY8t1bNsiX3Fo1ht0ux2mp9o4TolaNbfgqOzj9tu+KjtewvR0prfOVx3UNEfH8xBp gd2776frO7SaO0iSrEnTKVroWhPLMhkdrbFyVYG1qwqDYGxJEvVx7gfOkue++0K8ZAV2+ChCPHRZ zKQUvaW+w3f3MBkWSzaGtxH1iRFqgBqhh+m8j0JvtdWQjFVPmwMVAQQYQQ6hNAmUQnYcDUloHVWj gTo/ksaMslam2Fog9V1wHUMEi/FJzSy3NWwpB8S3tD06NdCTzNLpDqhhRhxDATHNI/erce77X0GU zKFpbRSmGF2WzSBwck1GCiN7WCOA2zZ9Qc7N2dSb03Rau0h8A9W20FMYXbWWctnLRHNGNq6vUZ/K xtZ0EmzbYmSszOKlMx3/cjkz26FRn2JmKpMCu45DaUSj1dXwPI+wk9Dt1pmcCQavU00NzELA6DKT nF1h+coco9Xc70ai8akLZRSs4B1nf52LL74GkYwRxWsQSguSEVzTJwhKg5F22YrPhdamT6BhLJg2 uyhiG0z6WPTYUClmK9SHHuMkYmAVdKFkU0l6xxb0alc96zUYlj5EBjdIkdKga8UDa9QnUpZpNzNC Jy3QMqsDmYUhjrPu1iFrHJo6IpxGEQEjIykvPvOFjI5O4eRDVKYxLQehRSiEjI7WqNYE5VKRVStO WzKwuW3TFyTAzFQLKXyQBRzHRiGiWHHYuOH5g+f1BztEish+/9CHPJwD7D+2E7VI04C8mSWTx1Y9 W9xz39dk6KVMz8wihU+rkc/axoFqxcVyVUole4/rfUASQZZwbMzGtLpVXvOaN/Pbm130aPWS0dji zpDFhBgmRR+hUhw8fth6DayaCHBiK/tghx6b/RsM2pSH//YCy7FYa9S/Hmlhp1q2qLg3zrijpr1d scWFiwJ7KYVhVUNWwsksjxukhHgIpUWoR7z8RcexYb0NWgfX9vFjyNtdvMCnVnNYvjx7HdWRIsVS bcHMxsXok2O2nmXcKyWbSBEP+JyHgvr0ZXKq0SAIAtLYQdGyPJtIdfIVZ8m/+6AkArjr3ktk6OtM T0X89sadvP1tFyCj5aRphUBXMILeHCE9gdDFTjUUMUfHaEJcHZAjmyWU3bl9p7TviyzVG4a0sgLi EPrV+v6x+WCNjF3FzCxYz/9aYG16Rx1kMwAGLUqquYB0g/9b2mButptk1xGLenasymn+7pi/4Zhj HoXQGkTBJCtWZHexYZmDbZG5nI7jKr8Tgf5S8DuRCODeLV+USZKjPhvR7ehcc819fPhDn6STHoIR 6ZCMZHepGMVIG4MPa68E0ZP5I4GFFqpvhbJlL0v0uj3YlI8hSGkMjqdhEgkREpIl14Yt1lK+XP/6 Flir3nHYMXdyyPqN/OvrX8zOnT9D1ceBBiOVIlHSJo0NRkeXkSsZGEpCvupQcLQlj4W/VPzOJILM R+q2I1pdjbCjMjnlc/4nr+Caa+6FuIav6JixSSBq2EkOT/cGEpJBH9gQafofBLDgGOvjgXat9R/7 YMPYBz7UEIkGR/DQcTiM4b85iNp6VjHUHcrKLN0opFAUnPmKf0ER2dQQRduOkw8RaYAgYtmKCm7O xVASqhV3EElVK+5Dmiv954b/FYn62DF+kex0s11d7bpGfS7hnHd8jFtu0RFqTJo8MmvR8eMFjjP0 7mxFHcxyHLY0i/2XB8PwUbM3LCba4p21i7/Xx+BnupOF/JBNO5OTKCLgqf/wGB592AG4zm6CuIVp KWhqA8sUSGlQHcn6x1zHYaRaIV9xsCzBaOWUhw15+vi9SNTHjvGLZL3u0e126HY0rr8+4GMf/wit 6TXEaZlQjCxwfPvoqnIQxi/eC9LHA5Hjd33cYgwfk4uHpA98NtjDIQ/NLA2hqjMcdshBvPJ1z2Hb ti3YTowX/hjL0tHVEXJuQqHoDPyeWmUFphtjmRblSvlhZX2G8TuTqC+hXarOdv/4pbI+HeEHPkFo csklv+Hjn7oOLV4GyQih7gwsT98C9LXHBguLp4uTjkv6Uz0sth5LYbBIZonfvbf2I1fVCdMkI5bu oMdzRNo4X7rgvdxz70+wbLCszLQ6dkrBTYkSlbyTda5WKy6lEQ3DqC3IGD9c8ZAs0TAmZi6TUdBi fGdA15ug1VzJJ//r51x+7c2Y5LHVCp2g14WhDSUG+zs9hqzCwFr0IitYmNUe5KIUE1cu7G1fjGEL 00efmMNHnavqAxnrcJuUlUzxhje/YuDzWFaM50+Qd20ULaSQW0/O8nCKAbXqCmzboljRUPSE4X71 hzP+YCTq4/7xS2UYNJmdaTMxBTO7i3z4o9/i1tunMNKxwZ75QblD5PeoufXDe2BAkmECDbcmL04B LMZw4nE4S734532rNFAR6ApPesJRHH985rNZloXnN7EtJYuyisrA8piWyUjNRDfyPGL/5/xVEGcY f3ASQZawagZQn2nTDpvM7Ir51a+afOGz32N8Ghx9OZFXnI98gKLoZlZJBNnQyt4s6wVJvyWwVIYc liBPvzQxnPfpJS+dNBhYPVtLqKyu8M53ZH6P0O7AzRvYekiUtHtyYIdUZjMTqyMVyuUKtq08bEL2 /y3+KCQaxl33XiKDbkKjJanPJXznu5dz4Zd/gcdGivEoXqwO8i998vTXkuu9qR3DWOzf7NH1OhQF LlAC9KxXv3SCooLsZoXTOMZMm7iVAq991d+jGdsxrRDJfURRBcdSyLkJhqlSLhcp5E1cx6FYyY7i 4fLD4hLDXwP+6CSCLIrzvJSpuQ5hJ0GmI3zwg9/k8qs3oUWPGLQO9yv0caLP+zJDPepLjZYZnhMw KEcMEciVLVJZzgariwA3URYI4LpJ1sL8pre8FE2LcHNtgnAXkjZ5N8QwctiWGGSbR0dGsFyVQqn4 sMg2/yHwJyERMBgAML57bpConJ1u8eY3fZpOs0QUriQQtT0sS/9D7x9De+R9hgS+S1khXU5mFfW4 NwcozcYGO6pGwAQnPvUIHnXo4SA2YdnZFqCRSjYISoiQWjlHooQsGy1SreWpFgoURnJ7hOuLLdBf k0X6k5Gojx3jF0ndzDO+e47GdJtWK8+vfrmDD37wEohryDSXOd+mu6AivxgDKckSGeelHpuaeWJm s0Gjlk+puJsP/9fF3L/9Yjx/GssqoKuZdqeSq6LnGxSd5Tj5rKXadBPKpeLDOt/z++JPTqJh7Bi/ SE7NxXiex8xuh8+cfwmXXT49cLxDS9tD2rE4wlrgHA/NKOqXTFSqCyr1TqnBa173DFLZIJcP8fwm 1TIEYYBpmJRKLoZUqYytxHEj3JxPqWTvI88D4P+URJAVdtM0oD4XEWMytavMe979WW6/SSFJqigi WJAW2Jtl6mOxVslMmziiiie28eKXvoDqiIvp3ISbh3ZrK7Z1ILo6zejoMlStQz4vqVVXDPyeh1ud 64+B/3MS9bFtx7WyMTuJUCy2bt/OXbcqfOTD/83MdJ5UGoMeqD2ItGg7Yx/Dasejj92f5z3/mTSa 36PrbybvjtHuZOP1pFanXFxFISdxnBLV6hiW3VkQce3DA+PPhkSQqQTiyKY+HdFoSeJQ4+KLt3Hh ly8kCLJB33o6ukDCoWEtFMzH8xZoxdrVvP2tr2Pbzl/jOrsJ5Q5cK8F1szRBrlhCTxmUKvrKvWFV 4D48OP4sSLQ4krl//FLpdVOCboIfTjEx4XL+J6/gR9feiheVMdIxZFoYRGp9fZLhx4NBVv1ShdDu QFETHEtBEGGaBlZOwzGVQcjel2jsC9l/P/xZkGhv6OuXPC9gakqn0xa87ezvDkooAKk0s9G5vemz x59wBEcetYJUNlD1cfJupi7sD5+wDYtCrcqykTyurWK6MYVicTDU6v/sxf4F48+aRH3sGL9Izk4L ZufmaDRHuH3Tb/nkR3468JcAjjtuFc87/XS2br8TRdmBbRVQ1SlUaeAULVRCqstL5B2NnKNhuSq1 ZaN7dETsw/8efxEk6qOvX5qenqLVXMm1V93HZy/4Hz7+yU8wOXMdvu9nax/8CWxrGdWyxMrpuLaC qiaMjoxQrDjkTHPJNp19+P3wZ0WiYd9obxnfHeMXyVTmqc+0mZuboNmq0mondNt30OmkFAt54qSD 69ZQtQ65nM5ILYft6JRLxX1O8x8Bf1Yk2hvi7uUyEKtx7YMF9KK4sEQYTlGfjtk1MYeqJiTkmJmZ wTEVioUC5aqKZdSoVbQlSxWL8ddUqvhD4i+CRH30P+T+vxMzl8lmPdMTBUGA30mYme2QrzpoBFSq uUG/+D788fAXRaK9YXL2W7LZaOB5AbZtDsbM/LXqe/7UeFiQaCl0/MvlvpD9T4OHLYn24U+H372V dB/2YS/YR6J9eMjYR6J9eMjYR6J9eMjYR6J9eMjYR6J9eMj4//xZrNwRt0cPAAAAAElFTkSuQmCC  "
     id="image1065"
     x="-5.5883007"
     y="-17.443642"
     style="opacity:0" /><g
     id="logo"><g
   style="stroke:#000000;stroke-width:6.5;stroke-miterlimit:4;stroke-opacity:1;stroke-dasharray:none"
   id="MOL_black"><g
     id="MOL"
     style="stroke-width:8;stroke-miterlimit:4;stroke-dasharray:none"><path
       inkscape:connector-curvature="0"
       id="ML"
       style="fill:none"
       d="m 4.25,171.9375 0.8235199,0 c 20.0561961,0 35.9183601,-11.09308 38.5467301,-36.1015 L 55.584625,21.962502 c 0.21725,-2.0675 1.961375,-3.6375 4.0405,-3.6375 1.918,0 3.575125,1.3425 3.973625,3.2175 l 10.909625,51.045 c 0.770824,3.6066 3.953125,6.1875 7.641625,6.1875 3.791,0 7.035625,-2.7225 7.693875,-6.45625 L 101.05138,8.4675016 c 0.39837,-1.87625 2.05562,-3.2175 3.97362,-3.2175 2.10062,0 3.8555,1.6025 4.04587,3.69375 L 123.51675,168.24312 c 0.19037,2.09238 1.94525,3.69438 4.04587,3.69438 2.16113,0 3.94363,-1.69238 4.05613,-3.85013 l 4.4125,-68.459748 c 0.1125,-2.15762 1.895,-3.849622 4.05625,-3.849622 2.24375,0 4.0625,1.818252 4.0625,4.062002 l 0,68.097498 c 0,2.24362 1.75625,4 4,4 l 11.9,0"
       sodipodi:nodetypes="ccccsccsccsccsccscccc" /><path
       sodipodi:type="arc"
       style="fill:none"
       id="O"
       sodipodi:cx="82.150002"
       sodipodi:cy="133.85699"
       sodipodi:rx="38.078999"
       sodipodi:ry="38.078999"
       d="m 120.229,133.85699 a 38.078999,38.078999 0 1 1 -76.157997,0 38.078999,38.078999 0 1 1 76.157997,0 z" /></g></g><text
   transform="scale(0.70710677,1.4142136)"
   id="CAS"
   y="123.87601"
   x="231.08249"
   style="font-style:normal;font-variant:normal;font-weight:bold;font-stretch:normal;line-height:0%;font-family:'Nimbus Sans L';-inkscape-font-specification:'Nimbus Sans L Bold';text-align:start;letter-spacing:0px;word-spacing:0px;writing-mode:lr-tb;text-anchor:start;fill:#000000;fill-opacity:1;stroke:none"
   xml:space="preserve"><tspan
     y="123.87601"
     x="231.08249"
     id="tspan3787"
     sodipodi:role="line"
     style="font-size:52px;line-height:1.25">CAS</tspan></text>

<g
   id="negative"
   clip-path="url(#hexagon)"><rect
     y="-18"
     x="-9"
     height="260"
     width="260"
     id="background"
     style="fill:#000000;fill-opacity:1" /><use
     clip-path="none"
     height="222.5"
     width="240"
     style="stroke:#ffffff;stroke-width:8;stroke-linecap:square;stroke-miterlimit:4;stroke-opacity:1;stroke-dasharray:none"
     id="MOL_white"
     xlink:href="#MOL"
     y="0"
     x="0" /></g></g><path
     id="path1640"
     style="fill:none;stroke:#bf0303;stroke-width:5.19999981;stroke-linecap:round;stroke-linejoin:miter;stroke-miterlimit:4;stroke-dasharray:none;stroke-opacity:1"
     d="m 172.25,64.680296 28.49999,0.238572 M 189.625,4.4408672 l 0.75,42.1079578 c 0.16083,9.029835 10.17842,9.303252 10.17842,9.303252 M 180.125,4.4408672 180.5,44.878821 c 0.0999,10.775126 -8.49134,12.425739 -8.50852,12.294565 M 180.125,4.4408672 c -3.70733,0 -9.92894,0.5979713 -9.625,9.4235938 l 1.75,50.815835 c 0.30471,8.848141 6.61875,12.644316 11.625,12.644316 h 6.24999 c 5.93113,0 10.81294,-3.737264 10.625,-12.405744 l -1.125,-51.889409 C 199.52166,8.2632864 197.15205,4.4408672 189.625,4.4408672 Z m 37.99999,10.7357398 1.5,57.376565 M 209.37555,3.8296223 210.24999,87.22535 M 182.875,99.750379 c 12.24999,-8.707877 17.77219,-8.916131 27.37499,-12.525029 4.79841,-1.803324 19.82692,-3.938148 19.375,-20.87505 l -1.375,-51.531551 c -0.25749,-9.6500505 -9.75,-11.5707418 -23.25,-10.8550258"
     inkscape:connector-curvature="0" /></svg>